{
   "appDesc": {
      "description": "App description.",
      "message": "Ihre Projekte werden noch per Rundmails organisiert? Mit Planio reduzieren Sie Ihre E-Mailflut um bis zu 80% - und behalten dabei besser den \u00DCberblick."
   },
   "appName": {
      "description": "App name.",
      "message": "Planio"
   }
}
