{
   "appDesc": {
      "description": "The description of the application, displayed in the web store.",
      "message": "\u041F\u0440\u0438\u0433\u043B\u0430\u0448\u0430\u0435\u043C \u0432 \u043E\u043D\u043B\u0430\u0439\u043D \u043F\u043E\u043A\u0435\u0440 \u043A\u043B\u0443\u0431! \u0423 \u043D\u0430\u0441 \u043A\u0430\u0436\u0434\u043E\u043C\u0443 \u043D\u0430\u0439\u0434\u0435\u0442\u0441\u044F \u043F\u043E\u0434\u0445\u043E\u0434\u044F\u0449\u0438\u0439 \u0441\u0442\u043E\u043B\u0438\u043A, \u0431\u0443\u0434\u044C \u0442\u044B \u043D\u043E\u0432\u0438\u0447\u043E\u043A \u0438\u043B\u0438 \u043E\u043F\u044B\u0442\u043D\u044B\u0439 \u0438\u0433\u0440\u043E\u043A. \u041E\u0442\u043B\u0438\u0447\u043D\u0430\u044F \u0433\u0440\u0430\u0444\u0438\u043A\u0430, \u043F\u043E\u0434\u0440\u043E\u0431\u043D\u0430\u044F \u0441\u0442\u0430\u0442\u0438\u0441\u0442\u0438\u043A\u0430, \u0443\u0434\u043E\u0431\u043D\u0430\u044F \u0441\u0438\u0441\u0442\u0435\u043C\u0430 \u0440\u0435\u0439\u0442\u0438\u043D\u0433\u043E\u0432 \u0438 \u0435\u0436\u0435\u0434\u043D\u0435\u0432\u043D\u044B\u0435 \u0431\u043E\u043D\u0443\u0441\u044B \u0441\u0434\u0435\u043B\u0430\u044E\u0442 \u0432\u043F\u0435\u0447\u0430\u0442\u043B\u0435\u043D\u0438\u044F \u043E\u0442 \u0438\u0433\u0440\u044B \u043C\u0430\u043A\u0441\u0438\u043C\u0430\u043B\u044C\u043D\u043E \u043F\u043E\u043B\u043D\u044B\u043C\u0438."
   },
   "appName": {
      "description": "The title of the application, displayed in the web store.",
      "message": "POKERWOOD - \u0422\u0435\u0445\u0430\u0441\u0441\u043A\u0438\u0439 \u0425\u043E\u043B\u0434\u0435\u043C \u043F\u043E\u043A\u0435\u0440"
   }
}
