{
   "appDesc": {
      "message": "Feuilles de travail collaboratives avec partage des fichiers, notifications et diagrammes de Gantt.  Collaborateurs GRATUITS !"
   },
   "appName": {
      "message": "Gestion de projets Smartsheet"
   }
}
